// Jest Snapshot v1, https://goo.gl/fbAQLP

exports[`<Chat /> before login should render before login snapshot 1`] = `<LoginPage />`;

exports[`<Chat /> default should render proper Chat snapshot 1`] = `
<div
  className="chat--main"
>
  <LeftPanel
    openWindowRoom={[Function]}
    rooms={Array []}
    user={
      Object {
        "id": "newMateUser",
        "name": "Admin",
      }
    }
    users={Array []}
  />
  <div
    className="rightpanel"
  >
    <div
      className="chat--room"
    >
      <div
        className="menu"
      >
        <button
          onClick={[Function]}
          title="Open Menu"
        >
          <MdMenu
            size="26px"
          />
        </button>
      </div>
      <h2
        className="chat--roomname"
      />
      <div
        className="toggle toggle--daynight"
      >
        <input
          className="toggle--checkbox"
          id="toggle--daynight"
          onChange={[Function]}
          type="checkbox"
        />
        <label
          className="toggle--btn"
          htmlFor="toggle--daynight"
        >
          <span
            className="toggle--feature"
          />
        </label>
      </div>
    </div>
    <div
      className="chat--messages-wrapper"
      id="messages"
    />
    <div
      className="chat--input"
    >
      <LocationButton
        room={null}
      />
      <form
        className="send--form"
        onSubmit={[Function]}
      >
        <input
          autoComplete="off"
          autoFocus={true}
          name="text"
          onKeyUp={[Function]}
          placeholder="Write message..."
          spellCheck="false"
          type="text"
        />
        <button
          className="send--button"
          type="submit"
        >
          <MdSend
            className="send--icon"
            size="20px"
          />
        </button>
      </form>
    </div>
  </div>
</div>
`;
