// Jest Snapshot v1, https://goo.gl/fbAQLP

exports[`<LoginPage /> should render LoginPage snapshot 1`] = `
<div
  className="login--page"
>
  <div
    className="login--box"
  >
    <form
      className="login--form-field"
      onSubmit={[Function]}
    >
      <h3>
        Welcome to Instant Chat
      </h3>
      <p
        className="error"
      />
      <input
        autoComplete="off"
        autoFocus={true}
        maxLength="20"
        name="userName"
        placeholder="Nick name..."
        type="text"
      />
      <button
        className="button"
        type="submit"
      >
        Join
      </button>
    </form>
  </div>
</div>
`;
